module github.com/go-flutter-desktop/hover

go 1.13

require (
	github.com/GeertJohan/go.rice v1.0.0
	github.com/daaku/go.zipexe v1.0.1 // indirect
	github.com/google/go-github v17.0.0+incompatible // indirect
	github.com/google/go-querystring v1.0.0 // indirect
	github.com/hashicorp/go-version v1.2.0
	github.com/logrusorgru/aurora v0.0.0-20200102142835-e9ef32dff381
	github.com/otiai10/copy v1.1.1
	github.com/pkg/errors v0.9.1
	github.com/spf13/cobra v1.0.0
	github.com/spf13/pflag v1.0.5 // indirect
	github.com/tcnksm/go-latest v0.0.0-20170313132115-e3007ae9052e
	golang.org/x/mod v0.2.0
	golang.org/x/net v0.0.0-20200324143707-d3edc9973b7e // indirect
	gopkg.in/yaml.v2 v2.2.8
)
